^D:\OPENCV_PROJECTS\CAPTIVE_LIGHTING\CAPTIVE_LIGHTING\CSVREADER.CPP
/c /ID:\OpenCV\opencv\build\include\ /ZI /nologo /W3 /WX- /sdl /Od /Oy- /D WIN32 /D _DEBUG /D _CONSOLE /D _LIB /D _UNICODE /D UNICODE /Gm /EHsc /RTC1 /MDd /GS /fp:precise /Zc:wchar_t /Zc:forScope /Fo"DEBUG\\" /Fd"DEBUG\VC120.PDB" /Gd /TP /analyze- D:\OPENCV_PROJECTS\CAPTIVE_LIGHTING\CAPTIVE_LIGHTING\CSVREADER.CPP
^D:\OPENCV_PROJECTS\CAPTIVE_LIGHTING\CAPTIVE_LIGHTING\CSVWRITER.CPP
/c /ID:\OpenCV\opencv\build\include\ /ZI /nologo /W3 /WX- /sdl /Od /Oy- /D WIN32 /D _DEBUG /D _CONSOLE /D _LIB /D _UNICODE /D UNICODE /Gm /EHsc /RTC1 /MDd /GS /fp:precise /Zc:wchar_t /Zc:forScope /Fo"DEBUG\\" /Fd"DEBUG\VC120.PDB" /Gd /TP /analyze- D:\OPENCV_PROJECTS\CAPTIVE_LIGHTING\CAPTIVE_LIGHTING\CSVWRITER.CPP
^D:\OPENCV_PROJECTS\CAPTIVE_LIGHTING\CAPTIVE_LIGHTING\MESH.CPP
/c /ID:\OpenCV\opencv\build\include\ /ZI /nologo /W3 /WX- /sdl /Od /Oy- /D WIN32 /D _DEBUG /D _CONSOLE /D _LIB /D _UNICODE /D UNICODE /Gm /EHsc /RTC1 /MDd /GS /fp:precise /Zc:wchar_t /Zc:forScope /Fo"DEBUG\\" /Fd"DEBUG\VC120.PDB" /Gd /TP /analyze- D:\OPENCV_PROJECTS\CAPTIVE_LIGHTING\CAPTIVE_LIGHTING\MESH.CPP
^D:\OPENCV_PROJECTS\CAPTIVE_LIGHTING\CAPTIVE_LIGHTING\MODEL.CPP
/c /ID:\OpenCV\opencv\build\include\ /ZI /nologo /W3 /WX- /sdl /Od /Oy- /D WIN32 /D _DEBUG /D _CONSOLE /D _LIB /D _UNICODE /D UNICODE /Gm /EHsc /RTC1 /MDd /GS /fp:precise /Zc:wchar_t /Zc:forScope /Fo"DEBUG\\" /Fd"DEBUG\VC120.PDB" /Gd /TP /analyze- D:\OPENCV_PROJECTS\CAPTIVE_LIGHTING\CAPTIVE_LIGHTING\MODEL.CPP
^D:\OPENCV_PROJECTS\CAPTIVE_LIGHTING\CAPTIVE_LIGHTING\MODELREGISTRATION.CPP
/c /ID:\OpenCV\opencv\build\include\ /ZI /nologo /W3 /WX- /sdl /Od /Oy- /D WIN32 /D _DEBUG /D _CONSOLE /D _LIB /D _UNICODE /D UNICODE /Gm /EHsc /RTC1 /MDd /GS /fp:precise /Zc:wchar_t /Zc:forScope /Fo"DEBUG\\" /Fd"DEBUG\VC120.PDB" /Gd /TP /analyze- D:\OPENCV_PROJECTS\CAPTIVE_LIGHTING\CAPTIVE_LIGHTING\MODELREGISTRATION.CPP
^D:\OPENCV_PROJECTS\CAPTIVE_LIGHTING\CAPTIVE_LIGHTING\PNPPROBLEM.CPP
/c /ID:\OpenCV\opencv\build\include\ /ZI /nologo /W3 /WX- /sdl /Od /Oy- /D WIN32 /D _DEBUG /D _CONSOLE /D _LIB /D _UNICODE /D UNICODE /Gm /EHsc /RTC1 /MDd /GS /fp:precise /Zc:wchar_t /Zc:forScope /Fo"DEBUG\\" /Fd"DEBUG\VC120.PDB" /Gd /TP /analyze- D:\OPENCV_PROJECTS\CAPTIVE_LIGHTING\CAPTIVE_LIGHTING\PNPPROBLEM.CPP
^D:\OPENCV_PROJECTS\CAPTIVE_LIGHTING\CAPTIVE_LIGHTING\ROBUSTMATCHER.CPP
/c /ID:\OpenCV\opencv\build\include\ /ZI /nologo /W3 /WX- /sdl /Od /Oy- /D WIN32 /D _DEBUG /D _CONSOLE /D _LIB /D _UNICODE /D UNICODE /Gm /EHsc /RTC1 /MDd /GS /fp:precise /Zc:wchar_t /Zc:forScope /Fo"DEBUG\\" /Fd"DEBUG\VC120.PDB" /Gd /TP /analyze- D:\OPENCV_PROJECTS\CAPTIVE_LIGHTING\CAPTIVE_LIGHTING\ROBUSTMATCHER.CPP
^D:\OPENCV_PROJECTS\CAPTIVE_LIGHTING\CAPTIVE_LIGHTING\SOURCE.CPP
/c /ID:\OpenCV\opencv\build\include\ /ZI /nologo /W3 /WX- /sdl /Od /Oy- /D WIN32 /D _DEBUG /D _CONSOLE /D _LIB /D _UNICODE /D UNICODE /Gm /EHsc /RTC1 /MDd /GS /fp:precise /Zc:wchar_t /Zc:forScope /Fo"DEBUG\\" /Fd"DEBUG\VC120.PDB" /Gd /TP /analyze- D:\OPENCV_PROJECTS\CAPTIVE_LIGHTING\CAPTIVE_LIGHTING\SOURCE.CPP
^D:\OPENCV_PROJECTS\CAPTIVE_LIGHTING\CAPTIVE_LIGHTING\UTILS.CPP
/c /ID:\OpenCV\opencv\build\include\ /ZI /nologo /W3 /WX- /sdl /Od /Oy- /D WIN32 /D _DEBUG /D _CONSOLE /D _LIB /D _UNICODE /D UNICODE /Gm /EHsc /RTC1 /MDd /GS /fp:precise /Zc:wchar_t /Zc:forScope /Fo"DEBUG\\" /Fd"DEBUG\VC120.PDB" /Gd /TP /analyze- D:\OPENCV_PROJECTS\CAPTIVE_LIGHTING\CAPTIVE_LIGHTING\UTILS.CPP
